Supplier ID,Supplier Part #,Quantity on Hand,Quantity Backordered,Quantity On Order,Item Next Availability Date,Discontinued,Product Name / Options
19440,101,15,,,,,Silk Ribbed Hand-Woven Bayleaf Area Rugs
19440,102,7,,,,,Silk Ribbed Hand-Woven Bamboo Area Rugs
19440,103,13,,,,,Silk Ribbed Hand-Woven Caramel Area Rugs
19440,104,0,,,,,Silk Ribbed Hand-Woven Wine Area Rugs
19440,105,19,,,,,Silk Ribbed Hand-Woven Spa Area Rugs
19440,107,5,,,,,Rodeo Handmade Tan Area Rug / Rug Size: Rectangle 5' x 8'
19440,108,5,,,,,Rodeo Handmade Red Area Rug / Rug Size: Rectangle 5' x 8'
19440,109,8,,,,,Rodeo Handmade Brown Area Rug / Rug Size: Rectangle 5' x 8'
19440,110,8,,,,,Rodeo Handmade Area Rug / Rug Size: Rectangle 5' x 8'
19440,112,4,,,,,Rodeo Handmade Tan Area Rug / Rug Size: Round 6'
19440,113,3,,,,,Rodeo Handmade Red Area Rug / Rug Size: Round 6'
19440,114,3,,,,,Rodeo Handmade Brown Area Rug / Rug Size: Round 6'
19440,115,3,,,,,Rodeo Handmade Area Rug / Rug Size: Round 6'
19440,116,4,,,,,"Rodeo Handmade Black Area Rug / Rug Size: Round 4'11"""
19440,117,4,,,,,"Rodeo Handmade Tan Area Rug / Rug Size: Round 4'11"""
19440,118,5,,,,,"Rodeo Handmade Red Area Rug / Rug Size: Round 4'11"""
19440,119,3,,,,,"Rodeo Handmade Brown Area Rug / Rug Size: Round 4'11"""
19440,120,5,,,,,"Rodeo Handmade Area Rug / Rug Size: Round 4'11"""
19440,121,0,,,,,Rodeo Handmade Black Area Rug / Rug Size: Round 3'
19440,122,0,,,,,Rodeo Handmade Tan Area Rug / Rug Size: Round 3'
19440,123,0,,,,,Rodeo Handmade Red Area Rug / Rug Size: Round 3'
19440,124,0,,,,,Rodeo Handmade Brown Area Rug / Rug Size: Round 3'
19440,125,10,,,,,Rodeo Handmade Area Rug / Rug Size: Round 3'
19440,127,0,,,,,Rodeo Handmade Tan Area Rug / Rug Size: Runner 2' x 6'
19440,128,0,,,,,Rodeo Handmade Red Area Rug / Rug Size: Runner 2' x 6'
19440,129,0,,,,,Rodeo Handmade Brown Area Rug / Rug Size: Runner 2' x 6'
19440,130,0,,,,,Rodeo Handmade Area Rug / Rug Size: Runner 2' x 6'
19440,131,0,,,,,Rodeo Handmade Black Area Rug / Rug Size: Rectangle 2' x 3'
19440,132,0,,,,,Rodeo Handmade Tan Area Rug / Rug Size: Rectangle 2' x 3'
19440,133,0,,,,,Rodeo Handmade Red Area Rug / Rug Size: Rectangle 2' x 3'
19440,134,0,,,,,Rodeo Handmade Brown Area Rug / Rug Size: Rectangle 2' x 3'
19440,135,0,,,,,Rodeo Handmade Area Rug / Rug Size: Rectangle 2' x 3'
19440,136,0,,,,,Broadway Handmade Red Area Rug / Rug Size: Rectangle 2' x 3'
19440,137,0,,,,,Broadway Handmade Tan Area Rug / Rug Size: Rectangle 2' x 3'
19440,138,12,,,,,Handmade Broadway Black Area Rug / Rug Size: Rectangle 2' x 3'
19440,139,12,,,,,Broadway Handmade Chocolate Area Rug / Rug Size: Rectangle 2' x 3'
19440,140,0,,,,,Broadway Handmade Beige Area Rug / Rug Size: Rectangle 2' x 3'
19440,142,0,,,,,"Broadway Handmade Tan Area Rug / Rug Size: Rectangle 3'6"" x 5'7"""
19440,144,1,,,,,"Broadway Handmade Chocolate Area Rug / Rug Size: Rectangle 3'6"" x 5'7"""
19440,145,0,,,,,"Broadway Handmade Beige Area Rug / Rug Size: Rectangle 3'6"" x 5'7"""
19440,146,6,,,,,"Broadway Handmade Red Area Rug / Rug Size: Round 4'11"""
19440,147,6,,,,,"Broadway Handmade Tan Area Rug / Rug Size: Round 4'11"""
19440,148,6,,,,,"Handmade Broadway Black Area Rug / Rug Size: Round 4'11"""
19440,149,5,,,,,"Broadway Handmade Chocolate Area Rug / Rug Size: Round 4'11"""
19440,150,2,,,,,"Broadway Handmade Beige Area Rug / Rug Size: Round 4'11"""
19440,151,1,,,,,"Broadway Handmade Red Area Rug / Rug Size: Rectangle 2'6"" x 4'2"""
19440,152,0,,,,,"Broadway Handmade Tan Area Rug / Rug Size: Rectangle 2'6"" x 4'2"""
19440,153,3,,,,,"Handmade Broadway Black Area Rug / Rug Size: Rectangle 2'6"" x 4'2"""
19440,156,2,,,,,"Broadway Handmade Red Area Rug / Rug Size: Runner 1'10"" x 5'"
19440,159,3,,,,,"Broadway Handmade Chocolate Area Rug / Rug Size: Runner 1'10"" x 5'"
19440,161,2,,,,,Broadway Handmade Red Area Rug / Rug Size: Rectangle 5' x 8'
19440,162,4,,,,,Broadway Handmade Tan Area Rug / Rug Size: Rectangle 5' x 8'
19440,163,2,,,,,Handmade Broadway Black Area Rug / Rug Size: Rectangle 5' x 8'
19440,164,5,,,,,Broadway Handmade Chocolate Area Rug / Rug Size: Rectangle 5' x 8'
19440,167,2,,,,,Broadway Handmade Tan Area Rug / Rug Size: Rectangle 8' x 10'
19440,168,3,,,,,Handmade Broadway Black Area Rug / Rug Size: Rectangle 8' x 10'
19440,169,5,,,,,Broadway Handmade Chocolate Area Rug / Rug Size: Rectangle 8' x 10'
19440,171,17,,,,,Kaylyn Hand-Knotted Blue Area Rug / Rug Size: 5' x 8'
19440,172,0,,,,,Kaylyn Hand-Knotted Light Green Area Rug / Rug Size: 5' x 8'
19440,173,9,,,,,Kaylyn Hand-Knotted Red Area Rug / Rug Size: 5' x 8'
19440,174,7,,,,,Kaylyn Hand-Knotted Purple Area Rug / Rug Size: 5' x 8'
19440,175,13,,,,,Kaylyn Hand-Knotted Yellow Area Rug / Rug Size: 5' x 8'
19440,176,12,,,,,Kaylyn Shaggy Pink Area Rug / Rug Size: 5' x 8'
19440,177,0,,,,,Kaylyn Hand-Knotted Blue Area Rug / Rug Size: Runner 2' x 6'
19440,178,0,,,,,Kaylyn Hand-Knotted Light Green Area Rug / Rug Size: Runner 2' x 6'
19440,179,43,,,,,Kaylyn Hand-Knotted Red Area Rug / Rug Size: Runner 2' x 6'
19440,180,0,,,,,Kaylyn Hand-Knotted Purple Area Rug / Rug Size: Runner 2' x 6'
19440,181,0,,,,,Kaylyn Hand-Knotted Yellow Area Rug / Rug Size: Runner 2' x 6'
19440,182,27,,,,,Kaylyn Shaggy Pink Area Rug / Rug Size: Runner 2' x 6'
19440,183,2,,,,,Kaylyn Hand-Knotted Blue Area Rug / Rug Size: 2' x 3'
19440,184,0,,,,,Kaylyn Hand-Knotted Light Green Area Rug / Rug Size: 2' x 3'
19440,185,23,,,,,Kaylyn Hand-Knotted Red Area Rug / Rug Size: 2' x 3'
19440,186,1,,,,,Kaylyn Hand-Knotted Purple Area Rug / Rug Size: 2' x 3'
19440,187,0,,,,,Kaylyn Hand-Knotted Yellow Area Rug / Rug Size: 2' x 3'
19440,188,30,,,,,Kaylyn Shaggy Pink Area Rug / Rug Size: 2' x 3'
19440,189,1,,,,,Handmade Tan Area Rug / Rug Size: Rectangle 8' x 10'
19440,190,0,,,,,Handmade Red Area Rug / Rug Size: Rectangle 8' x 10'
19440,191,13,,,,,Handmade Brown Area Rug / Rug Size: Rectangle 8' x 10'
19440,192,14,,,,,Handmade Brown/Tan Area Rug / Rug Size: Rectangle 8' x 10'
19440,193,12,,,,,Handmade Dark Brown Area Rug / Rug Size: Rectangle 8' x 10'
19440,194,3,,,,,Handmade Black Area Rug / Rug Size: Rectangle 8' x 10'
19440,195,9,,,,,Leather Shaggy Hand-Woven Multi Area Rug / Rug Size: Rectangle 8' x 10'
19440,196,0,,,,,Handmade Tan Area Rug / Rug Size: Rectangle 5' x 8'
19440,197,0,,,,,Handmade Red Area Rug / Rug Size: Rectangle 5' x 8'
19440,198,8,,,,,Handmade Brown Area Rug / Rug Size: Rectangle 5' x 8'
19440,199,23,,,,,Handmade Brown/Tan Area Rug / Rug Size: Rectangle 5' x 8'
19440,200,3,,,,,Handmade Dark Brown Area Rug / Rug Size: Rectangle 5' x 8'
19440,201,6,,,,,Handmade Black Area Rug / Rug Size: Rectangle 5' x 8'
19440,202,7,,,,,Leather Shaggy Hand-Woven Multi Area Rug / Rug Size: Rectangle 5' x 8'
19440,205,0,,,,,Handmade Brown Area Rug / Rug Size: Round 6'
19440,210,0,,,,,"Handmade Tan Area Rug / Rug Size: Round 4'11"""
19440,211,0,,,,,"Handmade Red Area Rug / Rug Size: Round 4'11"""
19440,212,18,,,,,"Handmade Brown Area Rug / Rug Size: Round 4'11"""
19440,213,8,,,,,"Handmade Brown/Tan Area Rug / Rug Size: Round 4'11"""
19440,214,17,,,,,"Handmade Dark Brown Area Rug / Rug Size: Round 4'11"""
19440,215,6,,,,,"Handmade Black Area Rug / Rug Size: Round 4'11"""
19440,216,9,,,,,"Leather Shaggy Hand-Woven Multi Area Rug / Rug Size: Round 4'11"""
19440,217,0,,,,,Handmade Tan Area Rug / Rug Size: Round 3'
19440,218,0,,,,,Handmade Red Area Rug / Rug Size: Round 3'
19440,219,0,,,,,Handmade Brown Area Rug / Rug Size: Round 3'
19440,220,0,,,,,Handmade Brown/Tan Area Rug / Rug Size: Round 3'
19440,221,0,,,,,Handmade Dark Brown Area Rug / Rug Size: Round 3'
19440,222,0,,,,,Handmade Black Area Rug / Rug Size: Round 3'
19440,223,0,,,,,Leather Shaggy Hand-Woven Multi Area Rug / Rug Size: Round 3'
19440,224,0,,,,,"Handmade Tan Area Rug / Rug Size: Rectangle 3'6"" x 5'7"""
19440,225,0,,,,,"Handmade Red Area Rug / Rug Size: Rectangle 3'6"" x 5'7"""
19440,226,0,,,,,"Handmade Brown Area Rug / Rug Size: Rectangle 3'6"" x 5'7"""
19440,227,0,,,,,"Handmade Brown/Tan Area Rug / Rug Size: Rectangle 3'6"" x 5'7"""
19440,228,0,,,,,"Handmade Dark Brown Area Rug / Rug Size: Rectangle 3'6"" x 5'7"""
19440,229,0,,,,,"Handmade Black Area Rug / Rug Size: Rectangle 3'6"" x 5'7"""
19440,230,0,,,,,"Leather Shaggy Hand-Woven Multi Area Rug / Rug Size: Rectangle 3'6"" x 5'7"""
19440,231,28,,,,,Handmade Tan Area Rug / Rug Size: Runner 2' x 6'
19440,232,0,,,,,Handmade Red Area Rug / Rug Size: Runner 2' x 6'
19440,233,9,,,,,Handmade Brown Area Rug / Rug Size: Runner 2' x 6'
19440,234,0,,,,,Handmade Brown/Tan Area Rug / Rug Size: Runner 2' x 6'
19440,235,0,,,,,Handmade Dark Brown Area Rug / Rug Size: Runner 2' x 6'
19440,236,2,,,,,Handmade Black Area Rug / Rug Size: Runner 2' x 6'
19440,237,24,,,,,Leather Shaggy Hand-Woven Multi Area Rug / Rug Size: Runner 2' x 6'
19440,239,1,,,,,"Handmade Red Area Rug / Rug Size: Rectangle 1'9"" x 2'9"""
19440,240,1,,,,,"Handmade Brown Area Rug / Rug Size: Rectangle 1'9"" x 2'9"""
19440,245,0,,,,,"Handmade Tan Area Rug / Rug Size: Runner 2' x 7'7"""
19440,246,6,,,,,"Handmade Red Area Rug / Rug Size: Runner 2' x 7'7"""
19440,247,4,,,,,"Handmade Brown Area Rug / Rug Size: Runner 2' x 7'7"""
19440,249,0,,,,,"Handmade Dark Brown Area Rug / Rug Size: Runner 2' x 7'7"""
19440,250,0,,,,,"Handmade Black Area Rug / Rug Size: Runner 2' x 7'7"""
19440,251,0,,,,,"Leather Shaggy Hand-Woven Multi Area Rug / Rug Size: Runner 2' x 7'7"""
19440,ABC2436BE,15,,,,,Broadway Hand-Woven Beige Area Rug
19440,ABC2436R,13,,,,,Broadway Hand-Woven Red Area Rug
19440,ABC2436TA,14,,,,,Broadway Hand-Woven Tan Area Rug
19440,ACA2134CO,220,,,,,Carson Hand-Woven Coco Indoor Area Rug
19440,ACA2134SS,220,,,,,Carson Hand-Woven Silver/Sage Indoor Area Rug
19440,ACA2134WI,220,,,,,Carson Hand-Woven Wine Indoor Area Rug
19440,ACL2134BR,59,,,,,ChainLink Hand-Woven Brown Indoor Area Rug
19440,ACL2134G,161,,,,,ChainLink Hand-Woven Green Indoor Area Rug
19440,ACL2134SP,124,,,,,ChainLink Hand-Woven Spa Indoor Area Rug
19440,ACL2134SS,34,,,,,ChainLink Hand-Woven Silver/Sage Indoor Area Rug
19440,ADC2032,987,,,,,Chindi Hand-Woven Blue Denim Indoor Area Rug
19440,ADC2134,662,,,,,Chindi Hand-Woven Blue Denim Indoor Area Rug
19440,ADC2642,489,,,,,Chindi Hand-Woven Blue Denim Indoor Area Rug
19440,AFC2034R,107,,,,,"Festoon Hand-Woven Red Indoor Area Rug / Rug Size: 1'8"" x 2'10"""
19440,AFC2034T,121,,,,,"Festoon Hand-Woven Brown Indoor Area Rug / Rug Size: 1'8"" x 2'10"""
19440,AFC2045B,20,,,,,"Festoon Hand-Woven Blue Indoor Area Rug / Rug Size: 1'8"" x 3'9"""
19440,AFC2045OL,16,,,,,"Festoon Hand-Woven Brown Indoor Area Rug / Rug Size: 1'8"" x 3'9"""
19440,AFC2045R,13,,,,,"Festoon Hand-Woven Red Indoor Area Rug / Rug Size: 1'8"" x 3'9"""
19440,AFC3050B,20,,,,,"Festoon Hand-Woven Blue Indoor Area Rug / Rug Size: 2'6"" x 4'2"""
19440,AFC3050OL,50,,,,,"Festoon Hand-Woven Brown Indoor Area Rug / Rug Size: 2'6"" x 4'2"""
19440,AFC3050R,20,,,,,"Festoon Hand-Woven Red Indoor Area Rug / Rug Size: 2'6"" x 4'2"""
19440,AFC6096BL,15,,,,,Festoon Hand-Woven Blue Indoor Area Rug / Rug Size: 5' x 8'
19440,AFC6096OL,15,,,,,Festoon Hand-Woven Brown Indoor Area Rug / Rug Size: 5' x 8'
19440,AFC6096R,15,,,,,Festoon Hand-Woven Red Indoor Area Rug / Rug Size: 5' x 8'
19440,AFPR2030CO,1392,,,,,"Foil Print Hand-Woven Coral Area Rug / Rug Size: Rectangle 1'8"" x 2'6"""
19440,AFPR2030GR,1391,,,,,"Foil Print Hand-Woven Gray Area Rug / Rug Size: 1'8"" x 2'6"""
19440,AFPR2030LI,1392,,,,,"Foil Print Hand-Woven Linen Area Rug / Rug Size: 1'8"" x 2'6"""
19440,AFPR2030TE,1391,,,,,"Foil Print Hand-Woven Teal Area Rug / Rug Size: Rectangle 1'8"" x 2'6"""
19440,AFPR2436CO,395,,,,,Foil Print Hand-Woven Coral Area Rug / Rug Size: Rectangle 2' x 3'
19440,AFPR2436GR,395,,,,,Foil Print Hand-Woven Gray Area Rug / Rug Size: 2' x 3'
19440,AFPR2436LI,395,,,,,Foil Print Hand-Woven Linen Area Rug / Rug Size: 2' x 3'
19440,AFPR2436TE,395,,,,,Foil Print Hand-Woven Teal Area Rug / Rug Size: Rectangle 2' x 3'
19440,AFPR58CO,0,,,,,Hand-Woven Coral Area Rug
19440,AMC3660AS,1354,,,,,Chindi Hand-Woven Area Rug
19440,ASR21342440DG,20,,,,,2 Piece Silk Ribbed Hand-Woven Olive Green Area Rug Set
19440,ASR21342440FS,50,,,,,2 Piece Silk Ribbed Hand-Woven Flax Sage Area Rug Set
19440,AVC2424AS1,61,,,,,Hand-Woven Off White Area Rug
19440,AVCR2424AS,56,,,,,Hand-Woven Red/Green Area Rug
19440,BAR1724BE,48,,,,,"Artesia Bath Rug / Size: 17"" W x 24"" L, Color: Beige"
19440,BAR1724CH,63,,,,,"Artesia Bath Rug / Size: 17"" W x 24"" L, Color: Chocolate"
19440,BAR1724GR,30,,,,,"Artesia Bath Rug / Size: 17"" W x 24"" L, Color: Gray"
19440,BAR1724NA,67,,,,,"Artesia Bath Rug / Size: 17"" W x 24"" L, Color: Natural"
19440,BAR2134BE,9,,,,,"Artesia Bath Rug / Size: 21"" W x 34"" L, Color: Beige"
19440,BAR2134CH,37,,,,,"Artesia Bath Rug / Size: 21"" W x 34"" L, Color: Chocolate"
19440,BAR2134GR,61,,,,,"Artesia Bath Rug / Size: 21"" W x 34"" L, Color: Gray"
19440,BAR2134NA,50,,,,,"Artesia Bath Rug / Size: 21"" W x 34"" L, Color: Natural"
19440,BAR2PCBE,5,,,,,Artesia 2 Piece Bath Rug Set / Color: Beige
19440,BAR2PCCH,5,,,,,Artesia 2 Piece Bath Rug Set / Color: Chocolate
19440,BAR2PCGR,5,,,,,Artesia 2 Piece Bath Rug Set / Color: Gray
19440,BAR2PCRE,5,,,,,Artesia 2 Piece Bath Rug Set / Color: Red
19440,BAV2134BE,38,,,,,Bell Flower Bath Rug / Color: Beige
19440,BBE2134BE,0,,,,,"Pascoe Bath Rug / Size: 21"" W x 34"" L, Color: Beige"
19440,BBE2134BL,0,,,,,"Pascoe Bath Rug / Size: 21"" W x 34"" L, Color: Blue"
19440,BBE2134BU,0,,,,,"Pascoe Bath Rug / Size: 21"" W x 34"" L, Color: Butter"
19440,BBE2134NA,15,,,,,Bell Flower Bath Rug / Color: Natural
19440,BBE2134PI,14,,,,,Loganne Solid Bath Rug / Color: Pink
19440,BBE2134RE,18,,,,,Loganne Solid Bath Rug / Color: Red
19440,BBE2440BE,0,,,,,"Pascoe Bath Rug / Size: 24"" W x 40"" L, Color: Beige"
19440,BBE2440BL,0,,,,,"Pascoe Bath Rug / Size: 24"" W x 40"" L, Color: Blue"
19440,BBE2440BU,0,,,,,"Pascoe Bath Rug / Size: 24"" W x 40"" L, Color: Butter"
19440,BBE2440NA,0,,,,,"Pascoe Bath Rug / Size: 24"" W x 40"" L, Color: Natural"
19440,BBE2525RE,0,,,,,Pascoe Heart Shaped Bath Rug / Color: Red
19440,BBEHR2525BU,0,,,,,Pascoe Heart Shaped Bath Rug / Color: Butter
19440,BBEHR2525NA,13,,,,,Loganne Bath Rug / Color: Natural
19440,BBEHR2525PI,4,,,,,Loganne Bath Rug / Color: Pink
19440,BBEHR2525RE,20,,,,,Loganne Hand-Knotted Red Bath Mat
19440,BBR2030BE,100,,,,,Brentwood Bath Rug / Color: Beige
19440,BBR2030BL,0,,,,,Brentwood Bath Rug / Color: Blue
19440,BBR2030YE,0,,,,,Brentwood Bath Rug / Color: Yellow
19440,BDE1724BL,45,,,,,"Delano Bath Rug / Size: 17"" W x 24"" L, Color: Blue"
19440,BDE1724GR,33,,,,,"Delano Bath Rug / Size: 17"" W x 24"" L, Color: Green"
19440,BDE1724LA,0,,,,,"Delano Bath Rug / Size: 17"" W x 24"" L, Color: Purple"
19440,BDE1724NA,39,,,,,"Delano Bath Rug / Size: 17"" W x 24"" L, Color: Natural"
19440,BDE2134BL,102,,,,,"Delano Bath Rug / Size: 21"" W x 34"" L, Color: Blue"
19440,BDE2134GR,99,,,,,"Delano Bath Rug / Size: 21"" W x 34"" L, Color: Green"
19440,BDE2134LA,0,,,,,"Delano Bath Rug / Size: 21"" W x 34"" L, Color: Purple"
19440,BDE2134NA,73,,,,,"Delano Bath Rug / Size: 21"" W x 34"" L, Color: Natural"
19440,BDE2PCBL,5,,,,,Delano 2 Piece Bath Rug Set / Color: Blue
19440,BDE2PCGR,4,,,,,Delano 2 Piece Bath Rug Set / Color: Green
19440,BDE2PCNA,4,,,,,Delano 2 Piece Bath Rug Set / Color: White
19440,BDR1724BL,0,,,,,"Yinka Double Ruffle Bath Rug / Size: 17"" W x 24"" L, Color: Blue"
19440,BDR1724BU,0,,,,,"Yinka Double Ruffle Bath Rug / Size: 17"" W x 24"" L, Color: Butter"
19440,BDR1724LI,0,,,,,"Yinka Double Ruffle Bath Rug / Size: 17"" W x 24"" L, Color: Linen"
19440,BDR1724NA,0,,,,,"Yinka Double Ruffle Bath Rug / Size: 17"" W x 24"" L, Color: Natural"
19440,BDR1724PI,0,,,,,"Yinka Double Ruffle Bath Rug / Size: 17"" W x 24"" L, Color: Pink"
19440,BDR1724SA,0,,,,,"Yinka Double Ruffle Bath Rug / Size: 17"" W x 24"" L, Color: Sage"
19440,BDR2134BL,0,,,,,"Yinka Double Ruffle Bath Rug / Size: 21"" W x 34"" L, Color: Blue"
19440,BDR2134BU,0,,,,,"Yinka Double Ruffle Bath Rug / Size: 21"" W x 34"" L, Color: Butter"
19440,BDR2134LI,0,,,,,"Yinka Double Ruffle Bath Rug / Size: 21"" W x 34"" L, Color: Linen"
19440,BDR2134NA,0,,,,,"Yinka Double Ruffle Bath Rug / Size: 21"" W x 34"" L, Color: Natural"
19440,BDR2134PI,0,,,,,"Yinka Double Ruffle Bath Rug / Size: 21"" W x 34"" L, Color: Pink"
19440,BDR2134SA,0,,,,,"Yinka Double Ruffle Bath Rug / Size: 21"" W x 34"" L, Color: Sage"
19440,BDR2154BL,0,,,,,"Yinka Double Ruffle Bath Rug / Size: 21"" W x 54"" L, Color: Blue"
19440,BDR2154BU,0,,,,,"Yinka Double Ruffle Bath Rug / Size: 21"" W x 54"" L, Color: Butter"
19440,BDR2154LI,0,,,,,"Yinka Double Ruffle Bath Rug / Size: 21"" W x 54"" L, Color: Linen"
19440,BDR2154NA,0,,,,,"Yinka Double Ruffle Bath Rug / Size: 21"" W x 54"" L, Color: Natural"
19440,BDR2154PI,0,,,,,"Yinka Double Ruffle Bath Rug / Size: 21"" W x 54"" L, Color: Pink"
19440,BDR2154SA,0,,,,,"Yinka Double Ruffle Bath Rug / Size: 21"" W x 54"" L, Color: Sage"
19440,BDR2440BL,0,,,,,"Yinka Double Ruffle Bath Rug / Size: 24"" W x 40"" L, Color: Blue"
19440,BDR2440BU,0,,,,,"Yinka Double Ruffle Bath Rug / Size: 24"" W x 40"" L, Color: Butter"
19440,BDR2440LI,0,,,,,"Yinka Double Ruffle Bath Rug / Size: 24"" W x 40"" L, Color: Linen"
19440,BDR2440NA,0,,,,,"Yinka Double Ruffle Bath Rug / Size: 24"" W x 40"" L, Color: Natural"
19440,BDR2440PI,0,,,,,"Yinka Double Ruffle Bath Rug / Size: 24"" W x 40"" L, Color: Pink"
19440,BDR2440SA,0,,,,,"Yinka Double Ruffle Bath Rug / Size: 24"" W x 40"" L, Color: Sage"
19440,BLW2030BE,29,,,,,Lake Wood Bath Rug / Color: Beige
19440,BLW2030BL,25,,,,,Lake Wood Bath Rug / Color: Blue
19440,BLW2030GR,26,,,,,Lake Wood Bath Rug / Color: Green
19440,BWA1724BL,84,,,,,"Waterford Bath Rug / Size: 17"" W x 24"" L, Color: Blue"
19440,BWA1724BU,72,,,,,"Waterford Bath Rug / Size: 17"" W x 24"" L, Color: Yellow"
19440,BWA1724CH,93,,,,,"Waterford Bath Rug / Size: 17"" W x 24"" L, Color: Chocolate"
19440,BWA1724LI,140,,,,,"Waterford Bath Rug / Size: 17"" W x 24"" L, Color: Linen"
19440,BWA1724NA,45,,,,,"Waterford Bath Rug / Size: 17"" W x 24"" L, Color: Natural"
19440,BWA1724SA,55,,,,,"Waterford Bath Rug / Size: 17"" W x 24"" L, Color: Green"
19440,BWA1724WH,27,,,,,"Waterford Bath Rug / Size: 17"" W x 24"" L, Color: White"
19440,BWA2020BL,8,,,,,Waterford Contour Rug / Color: Blue
19440,BWA2020BU,0,,,,,"Waterford Bath Rug / Size: 20"" W x 20"" L, Color: Yellow"
19440,BWA2020CH,73,,,,,Waterford Contour Rug / Color: Chocolate
19440,BWA2020GR,0,,,,,Waterford Contour Rug / Color: Green
19440,BWA2020LI,8,,,,,Waterford Contour Rug / Color: Linen
19440,BWA2020NA,65,,,,,Waterford Contour Rug / Color: Natural
19440,BWA2020WH,87,,,,,Waterford Contour Rug / Color: White
19440,BWA2020YE,46,,,,,Waterford Contour Rug / Color: Butter
19440,BWA2134BL,21,,,,,"Waterford Bath Rug / Size: 21"" W x 34"" L, Color: Blue"
19440,BWA2134BU,97,,,,,"Waterford Bath Rug / Size: 21"" W x 34"" L, Color: Yellow"
19440,BWA2134CH,93,,,,,"Waterford Bath Rug / Size: 21"" W x 34"" L, Color: Chocolate"
19440,BWA2134GR,61,,,,,"Waterford Bath Rug / Size: 21"" W x 34"" L, Color: Green"
19440,BWA2134LI,45,,,,,"Waterford Bath Rug / Size: 21"" W x 34"" L, Color: Linen"
19440,BWA2134NA,50,,,,,"Waterford Bath Rug / Size: 21"" W x 34"" L, Color: Natural"
19440,BWA2134WH,78,,,,,"Waterford Bath Rug / Size: 21"" W x 34"" L, Color: White"
19440,BWA2260BL,23,,,,,"Waterford Bath Rug / Size: 22"" W x 60"" L, Color: Blue"
19440,BWA2260BU,50,,,,,"Waterford Bath Rug / Size: 22"" W x 60"" L, Color: Yellow"
19440,BWA2260CH,41,,,,,"Waterford Bath Rug / Size: 22"" W x 60"" L, Color: Chocolate"
19440,BWA2260GR,45,,,,,"Waterford Bath Rug / Size: 22"" W x 60"" L, Color: Green"
19440,BWA2260LI,44,,,,,"Waterford Bath Rug / Size: 22"" W x 60"" L, Color: Linen"
19440,BWA2260NA,36,,,,,"Waterford Bath Rug / Size: 22"" W x 60"" L, Color: Natural"
19440,BWA2260WH,35,,,,,"Waterford Bath Rug / Size: 22"" W x 60"" L, Color: White"
19440,BWA2PCBL,3,,,,,Waterford 2 Piece Bath Rug Set / Color: Blue
19440,BWA2PCBU,4,,,,,Waterford 2 Piece Bath Rug Set / Color: Butter
19440,BWA2PCCH,5,,,,,Waterford 2 Piece Bath Rug Set / Color: Chocolate
19440,BWA2PCGR,5,,,,,Waterford 2 Piece Bath Rug Set / Color: Green
19440,BWA2PCLI,5,,,,,Waterford 2 Piece Bath Rug Set / Color: Linen
19440,BWA2PCNA,4,,,,,Waterford 2 Piece Bath Rug Set / Color: Natural
19440,BWA2PCWH,5,,,,,Waterford 2 Piece Bath Rug Set / Color: White
19440,BWA3PCBL,3,,,,,Waterford 3 Piece Bath Rug Set / Color: Blue
19440,BWA3PCCBL,3,,,,,Waterford 3 Piece Bath Rug Set / Color: Blue
19440,BWA3PCCBU,1,,,,,Waterford 3 Piece Bath Rug Set / Color: Butter
19440,BWA3PCCCH,0,,,,,Waterford 3 Piece Bath Rug Set / Color: Chocolate
19440,BWA3PCCH,3,,,,,Waterford 3 Piece Bath Rug Set / Color: Chocolate
19440,BWA3PCCLI,4,,,,,Waterford 3 Piece Bath Rug Set / Color: Linen
19440,BWA3PCCNA,2,,,,,Waterford 3 Piece Bath Rug Set / Color: Natural
19440,BWA3PCCSA,4,,,,,Waterford 3 Piece Bath Rug Set / Color: Sage
19440,BWA3PCCWH,4,,,,,Waterford 3 Piece Bath Rug Set / Color: White
19440,BWA3PCGR,4,,,,,Waterford 3 Piece Bath Rug Set / Color: Green
19440,BWA3PCLI,5,,,,,Waterford 3 Piece Bath Rug Set / Color: Linen
19440,BWA3PCNA,3,,,,,Waterford 3 Piece Bath Rug Set / Color: Natural
19440,BWA3PCWH,5,,,,,Waterford 3 Piece Bath Rug Set / Color: White
19440,BWA3PCye,5,,,,,Waterford 3 Piece Bath Rug Set / Color: Yellow
19440,BWA4PCCBL,1,,,,,Waterford 4 Piece Bath Rug Set / Color: Blue
19440,BWA4PCCCH,-1,,,,,Waterford 4 Piece Bath Rug Set / Color: Chocolate
19440,BWA4PCCLI,4,,,,,Waterford 4 Piece Bath Rug Set / Color: Linen
19440,BWA4PCCNA,3,,,,,Waterford 4 Piece Bath Rug Set / Color: Natural
19440,BWA4PCCSA,3,,,,,Waterford 4 Piece Bath Rug Set / Color: Sage
19440,BWA4PCCWH,3,,,,,Waterford 4 Piece Bath Rug Set / Color: White
19440,BWA4PCCYE,1,,,,,Waterford 4 Piece Bath Rug Set / Color: Yellow
19440,BWE2PCBE,19,,,,,Westlake 2 Piece Bath Rug Set / Color: Beige
19440,BWE2PCBL,18,,,,,Westlake 2 Piece Bath Rug Set / Color: Blue
19440,BWE2PCGR,19,,,,,West Lake 2 Piece Bath Rug / Color: Green
19440,BWE2PCWH,20,,,,,West Lake 2 Piece Bath Rug / Color: White
19440,BWEA1724BE,47,,,,,"Westlake Bath Rug / Size: 17"" W x 24"" L, Color: Beige"
19440,BWEA1724BL,32,,,,,"Westlake Bath Rug / Size: 17"" W x 24"" L, Color: Blue"
19440,BWEA1724GR,24,,,,,"Westlake Bath Rug / Size: 17"" W x 24"" L, Color: Green"
19440,BWEA1724WH,71,,,,,"Westlake Bath Rug / Size: 17"" W x 24"" L, Color: White"
19440,BWEA2134BE,10,,,,,"Westlake Bath Rug / Size: 21"" W x 34"" L, Color: Beige"
19440,BWEA2134BL,6,,,,,"Westlake Bath Rug / Size: 21"" W x 34"" L, Color: Blue"
19440,BWEA2134GR,57,,,,,"Westlake Bath Rug / Size: 21"" W x 34"" L, Color: Green"
19440,BWEA2134WH,6,,,,,"Westlake Bath Rug / Size: 21"" W x 34"" L, Color: White"
19440,CCC58AG,0,,,,,Hand-Woven Ash Gray Area Rug
19440,CCC58BI,0,,,,,Hand-Woven Rectangle Birch Area Rug
19440,CCC58BL,0,,,,,Hand-Woven Rectangle Blue Ash Area Rug
19440,CCC58CO,0,,,,,Hand-Woven Rectangle Copper Area Rug
19440,CCC58DN,0,,,,,Hand-Woven Dark Night Area Rug
19440,CCC58WH,0,,,,,Hand-Woven Rectangle White Area Rug
19440,CEC58AG,0,,,,,Hand-Woven Rectangle Ash Gray Area Rug
19440,CEC58BI,0,,,,,Hand-Woven Birch Area Rug
19440,CEC58BL,0,,,,,Hand-Woven Blue Ash Area Rug
19440,CEC58CO,0,,,,,Hand-Woven Copper Area Rug
19440,CEC58DN,0,,,,,Hand-Woven Rectangle Dark Night Area Rug
19440,CEC58WH,0,,,,,Hand-Woven White Area Rug
19440,EJS2472LB,0,,,,,Kaylyn Shaggy Hand-Knotted Area Rug / Rug Size: Runner 2' x 6'
19440,EJS2472LP,4,,,,,Jersey Shaggy Hand-Knotted Area Rug / Rug Size: Runner 2' x 6'
19440,EJS58LB,12,,,,,Kaylyn Shaggy Hand-Knotted Area Rug / Rug Size: Rectangle 5' x 8'
19440,EJS58LP,22,,,,,Jersey Shaggy Hand-Knotted Area Rug / Rug Size: Rectangle 5' x 8'
19440,FPR58BE,9,,,,,Hand-Woven Beige Area Rug
19440,FPR58FL,8,,,,,Hand-Woven Grey Area Rug
19440,FPR58GR,7,,,,,Hand-Woven Grey Area Rug
19440,FPR58TE,8,,,,,Blue Indoor Area Rug
19440,JS23LG,0,,,,,Antonio Shaggy Accent Bath Rug
19440,JS2436LB,6,,,,,Kaylyn Shaggy Hand-Knotted Area Rug / Rug Size: Rectangle 2' x 3'
19440,JS2436LP,2,,,,,Jersey Shaggy Hand-Knotted Area Rug / Rug Size: Rectangle 2' x 3'
19440,JS3RDB,10,,,,,Kaylyn Shaggy Round Hand-Knotted Dark Blue Area Rug
19440,JS3RPINK,0,,,,,Kaylyn Shaggy Round Hand-Knotted Pink Area Rug / Size: Round 3'
19440,JS3RPU,0,,,,,Kaylyn Shaggy Round Hand-Knotted Purple Area Rug / Size: Round 3'
19440,JS3RRE,0,,,,,Kaylyn Shaggy Round Hand-Knotted Red Area Rug / Size: Round 3'
19440,JS49RDB,13,,,,,Kaylyn Shaggy Round Hand-Knotted Blue Area Rug
19440,JS49RPI,0,,,,,"Kaylyn Shaggy Round Hand-Knotted Pink Area Rug / Size: Round 4'9"""
19440,JS49RPU,0,,,,,"Kaylyn Shaggy Round Hand-Knotted Purple Area Rug / Size: Round 4'9"""
19440,JS49RRE,1,,,,,"Kaylyn Shaggy Round Hand-Knotted Red Area Rug / Size: Round 4'9"""
19440,JS4LG,0,,,,,Antonio Shaggy Round Accent Bath Rug
19440,JS58DL,8,,,,,Kaylyn Shaggy Hand-Knotted Dark Yellow Area Rug
19440,JS58LG,0,,,,,Kaylyn Shaggy Hand-Knotted Light Green Area Rug
19440,JS58LL,3,,,,,Kaylyn Shaggy Hand-Knotted Light Yellow Area Rug
19440,LS35BL,1,,,,,Shaggy Hand-Knotted Black Indoor/Outdoor Area Rug
19440,LS35BRSA,31,,,,,Shaggy Hand-Knotted Brown Area Rug
19440,LS35DBR,7,,,,,Shaggy Hand-Knotted Dark Brown Area Rug
19440,LS35MU,14,,,,,Shaggy Hand-Knotted Red/Brown Area Rug
19440,LS35RE,4,,,,,Shaggy Hand-Knotted Red Indoor/Outdoor Area Rug
19440,LS49RTA,0,,,,,Leather Shaggy Brown Area Rug
19440,RC26BR,6,,,,,Rodeo Hand-woven Brown Area Rug
19440,RC26R,-3,,,,,Rodeo Hand-Woven Red Area Rug
19440,SB21342745CH,0,,,,,SeaBreeze 2 Piece Hand-Woven Chocolate Novelty Rug Set
19440,SB21342745CP,0,,,,,SeaBreeze 2 Piece Hand-Woven Champagne Novelty Rug Set
19440,SB21342745GD,0,,,,,SeaBreeze 2 Piece Hand-Woven Gold Novelty Rug Set
19440,SB21342745GY,0,,,,,SeaBreeze 2 Piece Hand-Woven Gray Novelty Rug Set
19440,SB21342745R,0,,,,,SeaBreeze 2 Piece Hand-Woven Red Novelty Rug Set
19440,SB21342745SD,0,,,,,SeaBreeze 2 Piece Hand-Woven Sand Novelty Rug Set
19440,SB35CH,4,,,,,SeaBreeze Hand-Woven Chocolate Novelty Rug
19440,SB35CP,4,,,,,SeaBreeze Hand-Woven Champagne Novelty Rug
19440,SB35GD,3,,,,,SeaBreeze Hand-Woven Gold Novelty Rug
19440,SB35GY,3,,,,,SeaBreeze Hand-Woven Gray Novelty Rug
19440,SB35R,5,,,,,SeaBreeze Hand-Woven Red Novelty Rug
19440,SB35SD,3,,,,,SeaBreeze Hand-Woven Sand Novelty Rug
19440,SB58CH,1,,,,,SeaBreeze Hand-Woven Chocolate Novelty Rug
19440,SB58CP,4,,,,,SeaBreeze Hand-Woven Champagne Novelty Rug
19440,SB58GD,2,,,,,SeaBreeze Hand-Woven Gold Novelty Rug
19440,SB58R,4,,,,,SeaBreeze Hand-Woven Red Novelty Rug
19440,SB58SD,0,,,,,SeaBreeze Hand-Woven Novelty Rug
